…
---

    Code
      endnote_seeker(RGS)
    Output
      # A tibble: 4,564 x 26
         referentiecode referentie_omsla~ sortering referentienummer omschrijving_ver~
         <chr>          <chr>             <chr>     <chr>            <chr>            
       1 B              <NA>              <NA>      <NA>             BALANS           
       2 BIva           <NA>              A         01               Immateriële vast~
       3 BIvaKou        <NA>              A.A       0101000          Kosten van opric~
       4 BIvaKouVvp     <NA>              A.A.A     0101010          Verkrijgings- of~
       5 BIvaKouAkp     <NA>              A.A.A1    101015           Actuele kostprijs
       6 BIvaKouAkpBeg  <NA>              A.A.A110  0101015.01       Beginbalans (ove~
       7 BIvaKouAkpInv  <NA>              A.A.A120  0101015.02       Investeringen    
       8 BIvaKouAkpAdo  <NA>              A.A.A130  0101015.03       Bij overname ver~
       9 BIvaKouAkpDes  <NA>              A.A.A140  0101015.04       Desinvesteringen 
      10 BIvaKouAkpDda  <NA>              A.A.A150  0101015.05       Afstotingen      
      # ... with 4,554 more rows, and 21 more variables: omschrijving <chr>,
      #   d_c <chr>, nivo <dbl>, zzp_belastingdienst_pilot_zol_awa <lgl>,
      #   basis <lgl>, uitgebr <lgl>, ez_vof_12 <lgl>, zzp <lgl>, wo_co_14 <lgl>,
      #   bb <lgl>, agro <lgl>, wkr <lgl>, ez_vof_18 <lgl>, bv <lgl>, wo_co_20 <lgl>,
      #   bank <lgl>, ozw_coop_sticht_fwo <lgl>, afrek_syst <lgl>, nivo5 <lgl>,
      #   uitbr5 <lgl>, terminal <lgl>
